{
  "menu":
[
  { "title": "Как найти", "link": "/kak-najti" },
  { "title": "Оплата", "link": "/oplata" },
  { "title": "Доставка", "link": "/dostavka" },
  { "title": "Сервис", "link": "/service" },
  { "title": "Контакты", "link": "/kontakti" },
  { "title": "О нас", "link": "/o-nas" },
  { "title": "Инструкции", "link": "/instruktsii" },
  { "title": "Запчасти", "link": "/catalog-zapchastey-mercury" },
  { "title": "Каталог Quicksilver", "link": "/quicksilver" },
  { "title": "Моторы Mercury", "link": "/mercury" },
  { "title": "Возврат и обмен товара", "link": "/vozvrat" },
  { "title": "Запрос запчастей", "link": "/request-spare-part" },
  { "title": "Запись на сервис", "link": "/make-an-appointment" }
],
  "text": "<p>ООО «Марин Трейдинг». © 2013-2017. Все права защищены.</p><p>Юридический адрес: 196608, Санкт-Петербург, город Пушкин, ул. Автомобильная, д. 4, лит. А3</p><p>ОГРН 1147847038987Обращаем ваше внимание на то, что вся представленная на сайте информация, касающаяся комплектаций, технических характеристик, цветовых сочетаний ни при каких условиях не является публичной офертой, определяемой положениями Статьи 437 (2) Гражданского кодекса Российской Федерации.</p>"
}