<?php

$categoryProducts = \DB::connection('mysql')->table('j25_virtuemart_product_categories')->whereIn('virtuemart_category_id',
    [133,134,135,136,137,138,139])->get();
foreach($categoryProducts as $categoryProduct) {
    $text = '<div id="documents-desc-text">';
    $product = \DB::connection('mysql')->table('j25_virtuemart_products')
    ->where('j25_virtuemart_products.virtuemart_product_id', $categoryProduct->virtuemart_product_id)
    ->join('j25_virtuemart_products_ru_ru', 'j25_virtuemart_products_ru_ru.virtuemart_product_id', '=', 'j25_virtuemart_products.virtuemart_product_id')
    ->first();
    $name2 = str_replace('Лодочный мотор', 'для лодочного мотора', $product->product_name);
    $resd = \DB::connection('mysql')->table('srn1manual')
    ->where('product_sku', $product->product_sku)->first();
    if($resd) {
            $manuald_size = @(int)filesize("./resources/manuals/".$resd->filename);
            $manuald_size_str = sprintf("%.2f",$manuald_size /1024/1024) .' Mб';
            $text .= '<h3><span class="title">Инструкция '.$name2.'</span></h3>';
            $text .= '<p><img src="/images/pdf.png" title="PDF" style="float:left;margin: 0 10px 0 5px"><a href="/resources/manuals/'.$resd->filename.'" target="_blank">Скачать инструкцию для '.$product->product_name.' в формате PDF.</a><br>'.$manuald_size_str.'</p>';
    }


    /// документы
    $name2 = str_replace('Лодочный мотор','лодочного мотора',$product->product_name);
    $text .= '<h3><span class="title">Документы, которые Вы получите при покупке '.$name2.'</span></h3>';
    $text .= '<ul>
        <li>Договор купли-продажи</li>
        <li>Накладная</li>
        <li>Официальный гарантийный талон</li>
        <li>Оригинал счета</li>
        <li>Инструкция по эксплуатации на русском языке</li>
        </ul>';



    //стандартная комплектация
    $text .= '<h3><span class="title">Стандартная комплектация '.$name2.'</span></h3>';
    $text .= '<p>Перечисленные ниже товары входят в стандартную поставку подвесного '.$name2.'</p>';

    $outboard_data = array (
        'F2.5M' =>
            array (
                'category' => 'FOURSTROKE',
                'name' => 'F2.5 M',
                'param' =>
                    array (
                        0 => 'Переходник для промывки двигателя',
                        1 => 'Шнур аварийной остановки мотора',
                        2 => 'Инструкция по эксплуатации на русском языке',
                        3 => 'Канистра с маслом 450 мл',
                        4 => 'Гребной винт 6"P',
                        5 => 'Запасная(-ые) свеча(-и) зажигания',
                        6 => 'Набор инструментов',
                    ),
            ),
        'F3.5M' =>
            array (
                'category' => 'FOURSTROKE',
                'name' => 'F3.5 M',
                'param' =>
                    array (
                        0 => 'Переходник для промывки двигателя',
                        1 => 'Шнур аварийной остановки мотора',
                        2 => 'Инструкция по эксплуатации на русском языке',
                        3 => 'Канистра с маслом 450 мл',
                        4 => 'Гребной винт 7"P',
                        5 => 'Запасная(-ые) свеча(-и) зажигания',
                        6 => 'Набор инструментов',
                    ),
            ),
        'F3.5ML' =>
            array (
                'category' => 'FOURSTROKE',
                'name' => 'F3.5 ML',
                'param' =>
                    array (
                        0 => 'Переходник для промывки двигателя',
                        1 => 'Шнур аварийной остановки мотора',
                        2 => 'Инструкция по эксплуатации на русском языке',
                        3 => 'Канистра с маслом 450 мл',
                        4 => 'Гребной винт 7"P',
                        5 => 'Запасная(-ые) свеча(-и) зажигания',
                        6 => 'Набор инструментов',
                    ),
            ),
        'F4M' =>
            array (
                'category' => 'FOURSTROKE',
                'name' => 'F4 M',
                'param' =>
                    array (
                        0 => 'Переходник для промывки двигателя',
                        1 => 'Шнур аварийной остановки мотора',
                        2 => 'Инструкция по эксплуатации на русском языке',
                        3 => 'Канистра с маслом 450 мл',
                        4 => 'Гребной винт 7"P',
                        5 => 'Запасная(-ые) свеча(-и) зажигания',
                        6 => 'Набор инструментов',
                    ),
            ),
        'F4ML' =>
            array (
                'category' => 'FOURSTROKE',
                'name' => 'F4 ML',
                'param' =>
                    array (
                        0 => 'Переходник для промывки двигателя',
                        1 => 'Шнур аварийной остановки мотора',
                        2 => 'Инструкция по эксплуатации на русском языке',
                        3 => 'Канистра с маслом 450 мл',
                        4 => 'Гребной винт 7"P',
                        5 => 'Запасная(-ые) свеча(-и) зажигания',
                        6 => 'Набор инструментов',
                    ),
            ),
        'F4MLSAILPOWER' =>
            array (
                'category' => 'FOURSTROKE',
                'name' => 'F4 ML Sailpower',
                'param' =>
                    array (
                        0 => 'Переходник для промывки двигателя',
                        1 => 'Шнур аварийной остановки мотора',
                        2 => 'Инструкция по эксплуатации на русском языке',
                        3 => 'Канистра с маслом 450 мл',
                        4 => 'Гребной винт 6"P',
                        5 => 'Запасная(-ые) свеча(-и) зажигания',
                        6 => 'Набор инструментов',
                    ),
            ),
        'F5M' =>
            array (
                'category' => 'FOURSTROKE',
                'name' => 'F5 M',
                'param' =>
                    array (
                        0 => 'Переходник для промывки двигателя',
                        1 => 'Топливный шланг',
                        2 => 'Шнур аварийной остановки мотора',
                        3 => 'Инструкция по эксплуатации на русском языке',
                        4 => 'Канистра с маслом 450 мл',
                        5 => 'Гребной винт 8"P',
                        6 => 'Запасная(-ые) свеча(-и) зажигания',
                        7 => 'Набор инструментов',
                    ),
            ),
        'F5ML' =>
            array (
                'category' => 'FOURSTROKE',
                'name' => 'F5 ML',
                'param' =>
                    array (
                        0 => 'Переходник для промывки двигателя',
                        1 => 'Топливный шланг',
                        2 => 'Шнур аварийной остановки мотора',
                        3 => 'Инструкция по эксплуатации на русском языке',
                        4 => 'Канистра с маслом 450 мл',
                        5 => 'Гребной винт 8"P',
                        6 => 'Запасная(-ые) свеча(-и) зажигания',
                        7 => 'Набор инструментов',
                    ),
            ),
        'F6M' =>
            array (
                'category' => 'FOURSTROKE',
                'name' => 'F6 M',
                'param' =>
                    array (
                        0 => 'Переходник для промывки двигателя',
                        1 => 'Топливный шланг',
                        2 => 'Шнур аварийной остановки мотора',
                        3 => 'Инструкция по эксплуатации на русском языке',
                        4 => 'Канистра с маслом 450 мл',
                        5 => 'Гребной винт 8"P',
                        6 => 'Запасная(-ые) свеча(-и) зажигания',
                        7 => 'Набор инструментов',
                    ),
            ),
        'F6ML' =>
            array (
                'category' => 'FOURSTROKE',
                'name' => 'F6 ML',
                'param' =>
                    array (
                        0 => 'Переходник для промывки двигателя',
                        1 => 'Топливный шланг',
                        2 => 'Шнур аварийной остановки мотора',
                        3 => 'Инструкция по эксплуатации на русском языке',
                        4 => 'Канистра с маслом 450 мл',
                        5 => 'Гребной винт 8"P',
                        6 => 'Запасная(-ые) свеча(-и) зажигания',
                        7 => 'Набор инструментов',
                    ),
            ),
        'F8M' =>
            array (
                'category' => 'FOURSTROKE',
                'name' => 'F8 M',
                'param' =>
                    array (
                        0 => 'Топливный шланг',
                        1 => 'Шнур аварийной остановки мотора',
                        2 => 'Инструкция по эксплуатации на русском языке',
                        3 => 'Крепёж',
                        4 => 'Канистра с маслом 1 л',
                        5 => 'Гребной винт 7.5"P',
                        6 => 'Выносной топливный бак 12 л',
                        7 => 'Запасная(-ые) свеча(-и) зажигания',
                        8 => 'Набор инструментов',
                    ),
            ),
        'F8ML' =>
            array (
                'category' => 'FOURSTROKE',
                'name' => 'F8 ML',
                'param' =>
                    array (
                        0 => 'Топливный шланг',
                        1 => 'Шнур аварийной остановки мотора',
                        2 => 'Инструкция по эксплуатации на русском языке',
                        3 => 'Крепёж',
                        4 => 'Канистра с маслом 1 л',
                        5 => 'Гребной винт 7.5"P',
                        6 => 'Выносной топливный бак 12 л',
                        7 => 'Запасная(-ые) свеча(-и) зажигания',
                        8 => 'Набор инструментов',
                    ),
            ),
        'F8ELH' =>
            array (
                'category' => 'FOURSTROKE',
                'name' => 'F8 ELH',
                'param' =>
                    array (
                        0 => 'Аккумуляторные провода',
                        1 => 'Топливный шланг',
                        2 => 'Шнур аварийной остановки мотора',
                        3 => 'Инструкция по эксплуатации на русском языке',
                        4 => 'Крепёж',
                        5 => 'Канистра с маслом 1 л',
                        6 => 'Гребной винт 7.5"P',
                        7 => 'Выносной топливный бак 12 л',
                        8 => 'Запасная(-ые) свеча(-и) зажигания',
                        9 => 'Набор инструментов',
                    ),
            ),
        'F9.9M' =>
            array (
                'category' => 'FOURSTROKE',
                'name' => 'F9.9 M',
                'param' =>
                    array (
                        0 => 'Топливный шланг',
                        1 => 'Шнур аварийной остановки мотора',
                        2 => 'Инструкция по эксплуатации на русском языке',
                        3 => 'Крепёж',
                        4 => 'Канистра с маслом 1 л',
                        5 => 'Гребной винт 8.5"P',
                        6 => 'Выносной топливный бак 12 л',
                        7 => 'Запасная(-ые) свеча(-и) зажигания',
                        8 => 'Набор инструментов',
                    ),
            ),
        'F9.9ML' =>
            array (
                'category' => 'FOURSTROKE',
                'name' => 'F9.9 ML',
                'param' =>
                    array (
                        0 => 'Топливный шланг',
                        1 => 'Шнур аварийной остановки мотора',
                        2 => 'Инструкция по эксплуатации на русском языке',
                        3 => 'Крепёж',
                        4 => 'Канистра с маслом 1 л',
                        5 => 'Гребной винт 8.5"P',
                        6 => 'Выносной топливный бак 12 л',
                        7 => 'Запасная(-ые) свеча(-и) зажигания',
                        8 => 'Набор инструментов',
                    ),
            ),
        'F9.9EL' =>
            array (
                'category' => 'FOURSTROKE',
                'name' => 'F9.9 EL',
                'param' =>
                    array (
                        0 => 'Аккумуляторные провода',
                        1 => 'Топливный шланг',
                        2 => 'Инструкция по эксплуатации на русском языке',
                        3 => 'Крепёж',
                        4 => 'Канистра с маслом 1 л',
                        5 => 'Гребной винт 8.5"P',
                        6 => 'Пульт дистанционного управления в отдельной упаковке',
                        7 => 'Выносной топливный бак 12 л',
                        8 => 'Запасная(-ые) свеча(-и) зажигания',
                        9 => 'Рулевой рычаг',
                        10 => 'Набор инструментов',
                    ),
            ),
        'F15M' =>
            array (
                'category' => 'FOURSTROKE',
                'name' => 'F15 M',
                'param' =>
                    array (
                        0 => 'Топливный шланг',
                        1 => 'Шнур аварийной остановки мотора',
                        2 => 'Инструкция по эксплуатации на русском языке',
                        3 => 'Крепёж',
                        4 => 'Канистра с маслом 1 л',
                        5 => 'Гребной винт 9"P',
                        6 => 'Выносной топливный бак 12 л',
                        7 => 'Набор инструментов',
                    ),
            ),
        'F15ML' =>
            array (
                'category' => 'FOURSTROKE',
                'name' => 'F15 ML',
                'param' =>
                    array (
                        0 => 'Топливный шланг',
                        1 => 'Шнур аварийной остановки мотора',
                        2 => 'Инструкция по эксплуатации на русском языке',
                        3 => 'Крепёж',
                        4 => 'Канистра с маслом 1 л',
                        5 => 'Гребной винт 9"P',
                        6 => 'Выносной топливный бак 12 л',
                        7 => 'Набор инструментов',
                    ),
            ),
        'F15E' =>
            array (
                'category' => 'FOURSTROKE',
                'name' => 'F15 E',
                'param' =>
                    array (
                        0 => 'Аккумуляторные провода',
                        1 => 'Топливный шланг',
                        2 => 'Инструкция по эксплуатации на русском языке',
                        3 => 'Крепёж',
                        4 => 'Канистра с маслом 1 л',
                        5 => 'Гребной винт 9"P',
                        6 => 'Пульт дистанционного управления в отдельной упаковке',
                        7 => 'Выносной топливный бак 12 л',
                        8 => 'Рулевой рычаг',
                        9 => 'Набор инструментов',
                    ),
            ),
        'F15EL' =>
            array (
                'category' => 'FOURSTROKE',
                'name' => 'F15 EL',
                'param' =>
                    array (
                        0 => 'Аккумуляторные провода',
                        1 => 'Топливный шланг',
                        2 => 'Инструкция по эксплуатации на русском языке',
                        3 => 'Крепёж',
                        4 => 'Канистра с маслом 1 л',
                        5 => 'Гребной винт 9"P',
                        6 => 'Пульт дистанционного управления в отдельной упаковке',
                        7 => 'Выносной топливный бак 12 л',
                        8 => 'Рулевой рычаг',
                        9 => 'Набор инструментов',
                    ),
            ),
        'F20M' =>
            array (
                'category' => 'FOURSTROKE',
                'name' => 'F20 M',
                'param' =>
                    array (
                        0 => 'Топливный шланг',
                        1 => 'Шнур аварийной остановки мотора',
                        2 => 'Инструкция по эксплуатации на русском языке',
                        3 => 'Крепёж',
                        4 => 'Канистра с маслом 1 л',
                        5 => 'Гребной винт 10"P',
                        6 => 'Выносной топливный бак 12 л',
                        7 => 'Запасная(-ые) свеча(-и) зажигания',
                        8 => 'Набор инструментов',
                    ),
            ),
        'F20ML' =>
            array (
                'category' => 'FOURSTROKE',
                'name' => 'F20 ML',
                'param' =>
                    array (
                        0 => 'Топливный шланг',
                        1 => 'Шнур аварийной остановки мотора',
                        2 => 'Инструкция по эксплуатации на русском языке',
                        3 => 'Крепёж',
                        4 => 'Канистра с маслом 1 л',
                        5 => 'Гребной винт 10"P',
                        6 => 'Выносной топливный бак 12 л',
                        7 => 'Запасная(-ые) свеча(-и) зажигания',
                        8 => 'Набор инструментов',
                    ),
            ),
        'F20EH' =>
            array (
                'category' => 'FOURSTROKE',
                'name' => 'F20 EH',
                'param' =>
                    array (
                        0 => 'Аккумуляторные провода',
                        1 => 'Топливный шланг',
                        2 => 'Шнур аварийной остановки мотора',
                        3 => 'Инструкция по эксплуатации на русском языке',
                        4 => 'Крепёж',
                        5 => 'Канистра с маслом 1 л',
                        6 => 'Гребной винт 10"P',
                        7 => 'Выносной топливный бак 12 л',
                        8 => 'Запасная(-ые) свеча(-и) зажигания',
                        9 => 'Набор инструментов',
                    ),
            ),
        'F20ELH' =>
            array (
                'category' => 'FOURSTROKE',
                'name' => 'F20 ELH',
                'param' =>
                    array (
                        0 => 'Аккумуляторные провода',
                        1 => 'Топливный шланг',
                        2 => 'Шнур аварийной остановки мотора',
                        3 => 'Инструкция по эксплуатации на русском языке',
                        4 => 'Крепёж',
                        5 => 'Канистра с маслом 1 л',
                        6 => 'Гребной винт 10"P',
                        7 => 'Выносной топливный бак 12 л',
                        8 => 'Запасная(-ые) свеча(-и) зажигания',
                        9 => 'Набор инструментов',
                    ),
            ),
        'F20E' =>
            array (
                'category' => 'FOURSTROKE',
                'name' => 'F20 E',
                'param' =>
                    array (
                        0 => 'Аккумуляторные провода',
                        1 => 'Топливный шланг',
                        2 => 'Инструкция по эксплуатации на русском языке',
                        3 => 'Крепёж',
                        4 => 'Канистра с маслом 1 л',
                        5 => 'Гребной винт 10"P',
                        6 => 'Пульт дистанционного управления в отдельной упаковке',
                        7 => 'Выносной топливный бак 12 л',
                        8 => 'Запасная(-ые) свеча(-и) зажигания',
                        9 => 'Рулевой рычаг',
                        10 => 'Набор инструментов',
                    ),
            ),
        'F20EL' =>
            array (
                'category' => 'FOURSTROKE',
                'name' => 'F20 EL',
                'param' =>
                    array (
                        0 => 'Аккумуляторные провода',
                        1 => 'Топливный шланг',
                        2 => 'Инструкция по эксплуатации на русском языке',
                        3 => 'Крепёж',
                        4 => 'Канистра с маслом 1 л',
                        5 => 'Гребной винт 10"P',
                        6 => 'Пульт дистанционного управления в отдельной упаковке',
                        7 => 'Выносной топливный бак 12 л',
                        8 => 'Запасная(-ые) свеча(-и) зажигания',
                        9 => 'Рулевой рычаг',
                        10 => 'Набор инструментов',
                    ),
            ),
        'F20ELPT' =>
            array (
                'category' => 'FOURSTROKE',
                'name' => 'F20 ELPT',
                'param' =>
                    array (
                        0 => 'Аккумуляторные провода',
                        1 => 'Топливный шланг',
                        2 => 'Инструкция по эксплуатации на русском языке',
                        3 => 'Крепёж',
                        4 => 'Канистра с маслом 1 л',
                        5 => 'Гребной винт 10"P',
                        6 => 'Пульт дистанционного управления в отдельной упаковке',
                        7 => 'Выносной топливный бак 12 л',
                        8 => 'Запасная(-ые) свеча(-и) зажигания',
                        9 => 'Рулевой рычаг',
                        10 => 'Набор инструментов',
                    ),
            ),
        'F25MEFI' =>
            array (
                'category' => 'FOURSTROKE',
                'name' => 'F25 M EFI',
                'param' =>
                    array (
                        0 => 'Топливный шланг',
                        1 => 'Шнур аварийной остановки мотора',
                        2 => 'Инструкция по эксплуатации на русском языке',
                        3 => 'Крепёж',
                        4 => 'Канистра с маслом 2x 1 л',
                        5 => 'Гребной винт в отдельной упаковке',
                        6 => 'Выносной топливный бак 25 л.',
                        7 => 'Запасная(-ые) свеча(-и) зажигания',
                        8 => 'Набор инструментов',
                    ),
            ),
        'F25MLEFI' =>
            array (
                'category' => 'FOURSTROKE',
                'name' => 'F25 ML EFI',
                'param' =>
                    array (
                        0 => 'Топливный шланг',
                        1 => 'Шнур аварийной остановки мотора',
                        2 => 'Инструкция по эксплуатации на русском языке',
                        3 => 'Крепёж',
                        4 => 'Канистра с маслом 2x 1 л',
                        5 => 'Гребной винт в отдельной упаковке',
                        6 => 'Выносной топливный бак 25 л.',
                        7 => 'Запасная(-ые) свеча(-и) зажигания',
                        8 => 'Набор инструментов',
                    ),
            ),
        'F25EEFI' =>
            array (
                'category' => 'FOURSTROKE',
                'name' => 'F25 E EFI',
                'param' =>
                    array (
                        0 => 'Аккумуляторные провода',
                        1 => 'Топливный шланг',
                        2 => 'Инструкция по эксплуатации на русском языке',
                        3 => 'Крепёж',
                        4 => 'Канистра с маслом 2x 1 л',
                        5 => 'Гребной винт в отдельной упаковке',
                        6 => 'Пульт дистанционного управления в отдельной упаковке',
                        7 => 'Выносной топливный бак 25 л.',
                        8 => 'Запасная(-ые) свеча(-и) зажигания',
                        9 => 'Рулевой рычаг',
                        10 => 'Набор инструментов',
                    ),
            ),
        'F25ELEFI' =>
            array (
                'category' => 'FOURSTROKE',
                'name' => 'F25 EL EFI',
                'param' =>
                    array (
                        0 => 'Аккумуляторные провода',
                        1 => 'Топливный шланг',
                        2 => 'Инструкция по эксплуатации на русском языке',
                        3 => 'Крепёж',
                        4 => 'Канистра с маслом 2x 1 л',
                        5 => 'Гребной винт в отдельной упаковке',
                        6 => 'Пульт дистанционного управления в отдельной упаковке',
                        7 => 'Выносной топливный бак 25 л.',
                        8 => 'Запасная(-ые) свеча(-и) зажигания',
                        9 => 'Рулевой рычаг',
                        10 => 'Набор инструментов',
                    ),
            ),
        'F25ELPTEFI' =>
            array (
                'category' => 'FOURSTROKE',
                'name' => 'F25 ELPT EFI',
                'param' =>
                    array (
                        0 => 'Аккумуляторные провода',
                        1 => 'Топливный шланг',
                        2 => 'Инструкция по эксплуатации на русском языке',
                        3 => 'Крепёж',
                        4 => 'Канистра с маслом 2x 1 л',
                        5 => 'Гребной винт в отдельной упаковке',
                        6 => 'Пульт дистанционного управления в отдельной упаковке',
                        7 => 'Выносной топливный бак 25 л.',
                        8 => 'Запасная(-ые) свеча(-и) зажигания',
                        9 => 'Рулевой рычаг',
                        10 => 'Набор инструментов',
                    ),
            ),
        'F30MGAEFI' =>
            array (
                'category' => 'FOURSTROKE',
                'name' => 'F30 M GA EFI',
                'param' =>
                    array (
                        0 => 'Топливный шланг',
                        1 => 'Шнур аварийной остановки мотора',
                        2 => 'Инструкция по эксплуатации на русском языке',
                        3 => 'Крепёж',
                        4 => 'Канистра с маслом 2x 1 л',
                        5 => 'Гребной винт в отдельной упаковке',
                        6 => 'Выносной топливный бак 25 л.',
                        7 => 'Запасная(-ые) свеча(-и) зажигания',
                        8 => 'Набор инструментов',
                    ),
            ),
        'F30MLGAEFI' =>
            array (
                'category' => 'FOURSTROKE',
                'name' => 'F30 ML GA EFI',
                'param' =>
                    array (
                        0 => 'Топливный шланг',
                        1 => 'Шнур аварийной остановки мотора',
                        2 => 'Инструкция по эксплуатации на русском языке',
                        3 => 'Крепёж',
                        4 => 'Канистра с маслом 2x 1 л',
                        5 => 'Гребной винт в отдельной упаковке',
                        6 => 'Выносной топливный бак 25 л.',
                        7 => 'Запасная(-ые) свеча(-и) зажигания',
                        8 => 'Набор инструментов',
                    ),
            ),
        'F30ELGAEFI' =>
            array (
                'category' => 'FOURSTROKE',
                'name' => 'F30 EL GA EFI',
                'param' =>
                    array (
                        0 => 'Аккумуляторные провода',
                        1 => 'Топливный шланг',
                        2 => 'Инструкция по эксплуатации на русском языке',
                        3 => 'Крепёж',
                        4 => 'Канистра с маслом 2x 1 л',
                        5 => 'Гребной винт в отдельной упаковке',
                        6 => 'Пульт дистанционного управления в отдельной упаковке',
                        7 => 'Выносной топливный бак 25 л.',
                        8 => 'Запасная(-ые) свеча(-и) зажигания',
                        9 => 'Рулевой рычаг',
                        10 => 'Набор инструментов',
                    ),
            ),
        'F30ELPTEFI' =>
            array (
                'category' => 'FOURSTROKE',
                'name' => 'F30 ELPT EFI',
                'param' =>
                    array (
                        0 => 'Аккумуляторные провода',
                        1 => 'Топливный шланг',
                        2 => 'Инструкция по эксплуатации на русском языке',
                        3 => 'Крепёж',
                        4 => 'Канистра с маслом 2x 1 л',
                        5 => 'Гребной винт в отдельной упаковке',
                        6 => 'Пульт дистанционного управления в отдельной упаковке',
                        7 => 'Выносной топливный бак 25 л.',
                        8 => 'Запасная(-ые) свеча(-и) зажигания',
                        9 => 'Рулевой рычаг',
                        10 => 'Набор инструментов',
                    ),
            ),
        'F40M' =>
            array (
                'category' => 'FOURSTROKE',
                'name' => 'F40 M',
                'param' =>
                    array (
                        0 => 'Топливный шланг',
                        1 => 'Шнур аварийной остановки мотора',
                        2 => 'Инструкция по эксплуатации на русском языке',
                        3 => 'Крепёж',
                        4 => 'Выносной топливный бак. Топливный бак емкостью 25 л. в отдельной упаковке',
                        5 => 'Набор инструментов',
                    ),
            ),
        'F40ML' =>
            array (
                'category' => 'FOURSTROKE',
                'name' => 'F40 ML',
                'param' =>
                    array (
                        0 => 'Топливный шланг',
                        1 => 'Шнур аварийной остановки мотора',
                        2 => 'Инструкция по эксплуатации на русском языке',
                        3 => 'Крепёж',
                        4 => 'Выносной топливный бак. Топливный бак емкостью 25 л. в отдельной упаковке',
                        5 => 'Набор инструментов',
                    ),
            ),
        'F40EEFI' =>
            array (
                'category' => 'FOURSTROKE',
                'name' => 'F40 E EFI',
                'param' =>
                    array (
                        0 => 'Аккумуляторные провода',
                        1 => 'Топливный шланг',
                        2 => 'Инструкция по эксплуатации на русском языке',
                        3 => 'Крепёж',
                        4 => 'Пульт дистанционного управления в отдельной упаковке',
                        5 => 'Выносной топливный бак. Топливный бак емкостью 25 л. в отдельной упаковке',
                        6 => 'Рулевой рычаг',
                        7 => 'Набор инструментов',
                    ),
            ),
        'F40ELEFI' =>
            array (
                'category' => 'FOURSTROKE',
                'name' => 'F40 EL EFI',
                'param' =>
                    array (
                        0 => 'Аккумуляторные провода',
                        1 => 'Топливный шланг',
                        2 => 'Инструкция по эксплуатации на русском языке',
                        3 => 'Крепёж',
                        4 => 'Пульт дистанционного управления в отдельной упаковке',
                        5 => 'Выносной топливный бак. Топливный бак емкостью 25 л. в отдельной упаковке',
                        6 => 'Рулевой рычаг',
                        7 => 'Набор инструментов',
                    ),
            ),
        'F40ELPTEFI' =>
            array (
                'category' => 'FOURSTROKE',
                'name' => 'F40 ELPT EFI',
                'param' =>
                    array (
                        0 => 'Аккумуляторные провода',
                        1 => 'Топливный шланг',
                        2 => 'Инструкция по эксплуатации на русском языке',
                        3 => 'Крепёж',
                        4 => 'Пульт дистанционного управления в отдельной упаковке',
                        5 => 'Выносной топливный бак. Топливный бак емкостью 25 л. в отдельной упаковке',
                        6 => 'Рулевой рычаг',
                        7 => 'Набор инструментов',
                    ),
            ),
        'F50ELPTEFI' =>
            array (
                'category' => 'FOURSTROKE',
                'name' => 'F50 ELPT EFI',
                'param' =>
                    array (
                        0 => 'Аккумуляторные провода',
                        1 => 'Топливный шланг',
                        2 => 'Инструкция по эксплуатации на русском языке',
                        3 => 'Крепёж',
                        4 => 'Пульт дистанционного управления в отдельной упаковке',
                        5 => 'Выносной топливный бак. Топливный бак емкостью 25 л. в отдельной упаковке',
                        6 => 'Рулевой рычаг',
                        7 => 'Набор инструментов',
                        8 => 'Датчик угла наклона, аналоговый',
                    ),
            ),
        'F60ELPTEFI' =>
            array (
                'category' => 'FOURSTROKE',
                'name' => 'F60 ELPT EFI',
                'param' =>
                    array (
                        0 => 'Аккумуляторные провода',
                        1 => 'Топливный шланг',
                        2 => 'Инструкция по эксплуатации на русском языке',
                        3 => 'Крепёж',
                        4 => 'Пульт дистанционного управления в отдельной упаковке',
                        5 => 'Выносной топливный бак. Топливный бак емкостью 25 л. в отдельной упаковке',
                        6 => 'Рулевой рычаг',
                        7 => 'Набор инструментов',
                        8 => 'Датчик угла наклона, аналоговый',
                    ),
            ),
        'F60ELPTEFIBIGFOOT' =>
            array (
                'category' => 'FOURSTROKE',
                'name' => 'F60 ELPT EFI BigFoot',
                'param' =>
                    array (
                        0 => 'Аккумуляторные провода',
                        1 => 'Топливный шланг',
                        2 => 'Инструкция по эксплуатации на русском языке',
                        3 => 'Крепёж',
                        4 => 'Пульт дистанционного управления в отдельной упаковке',
                        5 => 'Выносной топливный бак. Топливный бак емкостью 25 л. в отдельной упаковке',
                        6 => 'Рулевой рычаг',
                        7 => 'Набор инструментов',
                        8 => 'Датчик угла наклона, аналоговый',
                    ),
            ),
        'L4NA80' =>
            array (
                'category' => 'FOURSTROKE',
                'name' => 'L4NA 80',
                'param' =>
                    array (
                        0 => 'Аккумуляторные провода',
                        1 => 'Топливный шланг без штуцеров в отдельной упаковке',
                        2 => 'Инструкция по эксплуатации на русском языке',
                        3 => 'Крепёж',
                        4 => 'Рулевой рычаг',
                        5 => 'Датчик угла наклона, аналоговый',
                    ),
            ),
        'L4NA100' =>
            array (
                'category' => 'FOURSTROKE',
                'name' => 'L4NA 100',
                'param' =>
                    array (
                        0 => 'Аккумуляторные провода',
                        1 => 'Топливный шланг без штуцеров в отдельной упаковке',
                        2 => 'Инструкция по эксплуатации на русском языке',
                        3 => 'Крепёж',
                        4 => 'Рулевой рычаг',
                        5 => 'Датчик угла наклона, аналоговый',
                    ),
            ),
        'L4NA115' =>
            array (
                'category' => 'FOURSTROKE',
                'name' => 'L4NA 115',
                'param' =>
                    array (
                        0 => 'Аккумуляторные провода',
                        1 => 'Топливный шланг без штуцеров в отдельной упаковке',
                        2 => 'Инструкция по эксплуатации на русском языке',
                        3 => 'Крепёж',
                        4 => 'Рулевой рычаг',
                        5 => 'Датчик угла наклона, аналоговый',
                    ),
            ),
        'F150EFI' =>
            array (
                'category' => 'FOURSTROKE',
                'name' => 'F150 EFI',
                'param' =>
                    array (
                        0 => 'Аккумуляторные провода',
                        1 => 'Топливный шланг без штуцеров в отдельной упаковке',
                        2 => 'Инструкция по эксплуатации на русском языке',
                        3 => 'Крепёж',
                        4 => 'Датчик угла наклона, цифровой',
                    ),
            ),
        'L4SC135' =>
            array (
                'category' => 'FOURSTROKE',
                'name' => 'L4SC 135',
                'param' =>
                    array (
                        0 => 'Аккумуляторные провода',
                        1 => 'Проводка питания сист. DTS',
                        2 => 'Инструкция по эксплуатации на русском языке',
                        3 => 'Крепёж',
                        4 => 'Датчик угла наклона, цифровой',
                    ),
            ),
        'L4SC150' =>
            array (
                'category' => 'FOURSTROKE',
                'name' => 'L4SC 150',
                'param' =>
                    array (
                        0 => 'Аккумуляторные провода',
                        1 => 'Проводка питания сист. DTS',
                        2 => 'Инструкция по эксплуатации на русском языке',
                        3 => 'Крепёж',
                        4 => 'Датчик угла наклона, цифровой',
                    ),
            ),
        'L4SC175' =>
            array (
                'category' => 'FOURSTROKE',
                'name' => 'L4SC 175',
                'param' =>
                    array (
                        0 => 'Аккумуляторные провода',
                        1 => 'Проводка питания сист. DTS',
                        2 => 'Инструкция по эксплуатации на русском языке',
                        3 => 'Крепёж',
                        4 => 'Датчик угла наклона, цифровой',
                    ),
            ),
        'L4SC200' =>
            array (
                'category' => 'FOURSTROKE',
                'name' => 'L4SC 200',
                'param' =>
                    array (
                        0 => 'Аккумуляторные провода',
                        1 => 'Проводка питания сист. DTS',
                        2 => 'Инструкция по эксплуатации на русском языке',
                        3 => 'Крепёж',
                        4 => 'Датчик угла наклона, цифровой',
                    ),
            ),
        'L6SC225' =>
            array (
                'category' => 'FOURSTROKE',
                'name' => 'L6SC 225',
                'param' =>
                    array (
                        0 => 'Аккумуляторные провода. Только модели с длинной ногой (20")',
                        1 => 'Проводка питания сист. DTS. Только модели с длинной ногой (20")',
                        2 => 'Инструкция по эксплуатации на русском языке',
                        3 => 'Крепёж',
                        4 => 'Датчик угла наклона, цифровой',
                    ),
            ),
        'L6SC250' =>
            array (
                'category' => 'FOURSTROKE',
                'name' => 'L6SC 250',
                'param' =>
                    array (
                        0 => 'Аккумуляторные провода. Только модели с длинной ногой (20")',
                        1 => 'Проводка питания сист. DTS. Только модели с длинной ногой (20")',
                        2 => 'Инструкция по эксплуатации на русском языке',
                        3 => 'Крепёж',
                        4 => 'Датчик угла наклона, цифровой',
                    ),
            ),
        'L6SC300' =>
            array (
                'category' => 'FOURSTROKE',
                'name' => 'L6SC 300',
                'param' =>
                    array (
                        0 => 'Аккумуляторные провода. Только модели с длинной ногой (20")',
                        1 => 'Проводка питания сист. DTS. Только модели с длинной ногой (20")',
                        2 => 'Инструкция по эксплуатации на русском языке',
                        3 => 'Крепёж',
                        4 => 'Датчик угла наклона, цифровой',
                    ),
            ),
        'OPTIMAX1.5L75' =>
            array (
                'category' => 'OPTIMAX',
                'name' => 'OptiMax 1.5L 75',
                'param' =>
                    array (
                        0 => 'Аккумуляторные провода',
                        1 => 'Инструкция по эксплуатации на русском языке',
                        2 => 'Крепёж',
                        3 => 'Рулевой рычаг',
                        4 => 'Датчик угла наклона, аналоговый',
                    ),
            ),
        'OPTIMAX1.5L90' =>
            array (
                'category' => 'OPTIMAX',
                'name' => 'OptiMax 1.5L 90',
                'param' =>
                    array (
                        0 => 'Аккумуляторные провода',
                        1 => 'Инструкция по эксплуатации на русском языке',
                        2 => 'Крепёж',
                        3 => 'Рулевой рычаг',
                        4 => 'Датчик угла наклона, аналоговый',
                    ),
            ),
        'OPTIMAX1.5L115' =>
            array (
                'category' => 'OPTIMAX',
                'name' => 'OptiMax 1.5L 115',
                'param' =>
                    array (
                        0 => 'Аккумуляторные провода',
                        1 => 'Инструкция по эксплуатации на русском языке',
                        2 => 'Крепёж',
                        3 => 'Рулевой рычаг',
                        4 => 'Датчик угла наклона, аналоговый',
                    ),
            ),
        'OPTMAX2.5L135' =>
            array (
                'category' => 'OPTIMAX',
                'name' => 'OptMax 2.5L 135',
                'param' =>
                    array (
                        0 => 'Аккумуляторные провода',
                        1 => 'Инструкция по эксплуатации на русском языке',
                        2 => 'Крепёж',
                        3 => 'Монтажный комплект, верхний',
                        4 => 'Рулевой рычаг',
                        5 => 'Датчик угла наклона, цифровой',
                    ),
            ),
        'OPTMAX2.5L150' =>
            array (
                'category' => 'OPTIMAX',
                'name' => 'OptMax 2.5L 150',
                'param' =>
                    array (
                        0 => 'Аккумуляторные провода',
                        1 => 'Инструкция по эксплуатации на русском языке',
                        2 => 'Крепёж',
                        3 => 'Монтажный комплект, верхний',
                        4 => 'Рулевой рычаг',
                        5 => 'Датчик угла наклона, цифровой',
                    ),
            ),
        'OPTMAX2.5L175' =>
            array (
                'category' => 'OPTIMAX',
                'name' => 'OptMax 2.5L 175',
                'param' =>
                    array (
                        0 => 'Аккумуляторные провода',
                        1 => 'Инструкция по эксплуатации на русском языке',
                        2 => 'Крепёж',
                        3 => 'Монтажный комплект, верхний',
                        4 => 'Рулевой рычаг',
                        5 => 'Датчик угла наклона, цифровой',
                    ),
            ),
        'OPTMAX2.5L175PROXS' =>
            array (
                'category' => 'OPTIMAX',
                'name' => 'OptMax 2.5L 175 Pro XS',
                'param' =>
                    array (
                        0 => 'Аккумуляторные провода',
                        1 => 'Инструкция по эксплуатации на русском языке',
                        2 => 'Крепёж',
                        3 => 'Монтажный комплект, верхний',
                        4 => 'Рулевой рычаг',
                        5 => 'Датчик угла наклона, цифровой',
                    ),
            ),
        'OPTIMAX3.0L200' =>
            array (
                'category' => 'OPTIMAX',
                'name' => 'OptiMax 3.0L 200',
                'param' =>
                    array (
                        0 => 'Аккумуляторные провода',
                        1 => 'Инструкция по эксплуатации на русском языке',
                        2 => 'Крепёж',
                        3 => 'Монтажный комплект, верхний',
                        4 => 'Рулевой рычаг',
                        5 => 'Датчик угла наклона, цифровой',
                    ),
            ),
        'OPTIMAX3.0L225' =>
            array (
                'category' => 'OPTIMAX',
                'name' => 'OptiMax 3.0L 225',
                'param' =>
                    array (
                        0 => 'Аккумуляторные провода',
                        1 => 'Инструкция по эксплуатации на русском языке',
                        2 => 'Крепёж',
                        3 => 'Монтажный комплект, верхний',
                        4 => 'Рулевой рычаг',
                        5 => 'Датчик угла наклона, цифровой',
                    ),
            ),
        'OPTIMAX3.0L225DTS' =>
            array (
                'category' => 'OPTIMAX',
                'name' => 'OptiMax 3.0L 225 DTS',
                'param' =>
                    array (
                        0 => 'Аккумуляторные провода',
                        1 => 'Проводка питания сист. DTS',
                        2 => 'Инструкция по эксплуатации на русском языке',
                        3 => 'Крепёж',
                        4 => 'Монтажный комплект, верхний',
                        5 => 'Рулевой рычаг',
                        6 => 'Датчик угла наклона, цифровой',
                    ),
            ),
        'OPTIMAX3.0L225PROXS' =>
            array (
                'category' => 'OPTIMAX',
                'name' => 'OptiMax 3.0L 225 Pro XS',
                'param' =>
                    array (
                        0 => 'Аккумуляторные провода',
                        1 => 'Проводка питания сист. DTS',
                        2 => 'Инструкция по эксплуатации на русском языке',
                        3 => 'Крепёж',
                        4 => 'Монтажный комплект, верхний',
                        5 => 'Рулевой рычаг',
                        6 => 'Датчик угла наклона, цифровой',
                    ),
            ),
        'OPTIMAX3.0L250PROXS' =>
            array (
                'category' => 'OPTIMAX',
                'name' => 'OptiMax 3.0L 250 Pro XS',
                'param' =>
                    array (
                        0 => 'Аккумуляторные провода',
                        1 => 'Проводка питания сист. DTS',
                        2 => 'Инструкция по эксплуатации на русском языке',
                        3 => 'Крепёж',
                        4 => 'Монтажный комплект, верхний',
                        5 => 'Рулевой рычаг',
                        6 => 'Датчик угла наклона, цифровой',
                    ),
            ),
        '2.5M' =>
            array (
                'category' => '2-STROKE',
                'name' => '2.5 M',
                'param' =>
                    array (
                        0 => 'Переходник для промывки двигателя',
                        1 => 'Шнур аварийной остановки мотора',
                        2 => 'Инструкция по эксплуатации на русском языке',
                        3 => 'Гребной винт 6"P',
                        4 => 'Запасная(-ые) свеча(-и) зажигания',
                        5 => 'Набор инструментов',
                    ),
            ),
        '3.3M' =>
            array (
                'category' => '2-STROKE',
                'name' => '3.3 M',
                'param' =>
                    array (
                        0 => 'Переходник для промывки двигателя',
                        1 => 'Шнур аварийной остановки мотора',
                        2 => 'Инструкция по эксплуатации на русском языке',
                        3 => 'Гребной винт 7"P',
                        4 => 'Запасная(-ые) свеча(-и) зажигания',
                        5 => 'Набор инструментов',
                    ),
            ),
        '3.3ML' =>
            array (
                'category' => '2-STROKE',
                'name' => '3.3 ML',
                'param' =>
                    array (
                        0 => 'Переходник для промывки двигателя',
                        1 => 'Шнур аварийной остановки мотора',
                        2 => 'Инструкция по эксплуатации на русском языке',
                        3 => 'Гребной винт 7"P',
                        4 => 'Запасная(-ые) свеча(-и) зажигания',
                        5 => 'Набор инструментов',
                    ),
            ),
        '4ML' =>
            array (
                'category' => '2-STROKE',
                'name' => '4 ML',
                'param' =>
                    array (
                        0 => 'Переходник для промывки двигателя',
                        1 => 'Шнур аварийной остановки мотора',
                        2 => 'Инструкция по эксплуатации на русском языке',
                        3 => 'Гребной винт 7"P',
                        4 => 'Набор инструментов',
                    ),
            ),
        '5M' =>
            array (
                'category' => '2-STROKE',
                'name' => '5 M',
                'param' =>
                    array (
                        0 => 'Переходник для промывки двигателя',
                        1 => 'Шнур аварийной остановки мотора',
                        2 => 'Инструкция по эксплуатации на русском языке',
                        3 => 'Гребной винт 8"P',
                        4 => 'Выносной топливный бак',
                        5 => 'Набор инструментов',
                    ),
            ),
        '5ML' =>
            array (
                'category' => '2-STROKE',
                'name' => '5 ML',
                'param' =>
                    array (
                        0 => 'Переходник для промывки двигателя',
                        1 => 'Шнур аварийной остановки мотора',
                        2 => 'Инструкция по эксплуатации на русском языке',
                        3 => 'Гребной винт 8"P',
                        4 => 'Выносной топливный бак',
                        5 => 'Набор инструментов',
                    ),
            ),
        '10M' =>
            array (
                'category' => '2-STROKE',
                'name' => '10 M',
                'param' =>
                    array (
                        0 => 'Топливный шланг',
                        1 => 'Шнур аварийной остановки мотора',
                        2 => 'Инструкция по эксплуатации на русском языке',
                        3 => 'Гребной винт 9"P',
                        4 => 'Выносной топливный бак 12 л.',
                        5 => 'Набор инструментов',
                    ),
            ),
        '15M' =>
            array (
                'category' => '2-STROKE',
                'name' => '15 M',
                'param' =>
                    array (
                        0 => 'Топливный шланг',
                        1 => 'Шнур аварийной остановки мотора',
                        2 => 'Инструкция по эксплуатации на русском языке',
                        3 => 'Гребной винт 9"P',
                        4 => 'Выносной топливный бак 25 л.',
                        5 => 'Набор инструментов',
                    ),
            ),
        '15ML' =>
            array (
                'category' => '2-STROKE',
                'name' => '15 ML',
                'param' =>
                    array (
                        0 => 'Топливный шланг',
                        1 => 'Шнур аварийной остановки мотора',
                        2 => 'Инструкция по эксплуатации на русском языке',
                        3 => 'Гребной винт 9"P',
                        4 => 'Выносной топливный бак 25 л.',
                        5 => 'Набор инструментов',
                    ),
            ),
        '30M' =>
            array (
                'category' => '2-STROKE',
                'name' => '30 M',
                'param' =>
                    array (
                        0 => 'Топливный шланг',
                        1 => 'Шнур аварийной остановки мотора',
                        2 => 'Инструкция по эксплуатации на русском языке',
                        3 => 'Гребной винт 13"P',
                        4 => 'Выносной топливный бак 25 л.',
                        5 => 'Запасная(-ые) свеча(-и) зажигания',
                        6 => 'Набор инструментов',
                    ),
            ),
        '30ML' =>
            array (
                'category' => '2-STROKE',
                'name' => '30 ML',
                'param' =>
                    array (
                        0 => 'Топливный шланг',
                        1 => 'Шнур аварийной остановки мотора',
                        2 => 'Инструкция по эксплуатации на русском языке',
                        3 => 'Гребной винт 11"P',
                        4 => 'Выносной топливный бак 25 л.',
                        5 => 'Запасная(-ые) свеча(-и) зажигания',
                        6 => 'Набор инструментов',
                    ),
            ),
        '30E' =>
            array (
                'category' => '2-STROKE',
                'name' => '30 E',
                'param' =>
                    array (
                        0 => 'Аккумуляторные провода',
                        1 => 'Топливный шланг',
                        2 => 'Инструкция по эксплуатации на русском языке',
                        3 => 'Гребной винт 13"P',
                        4 => 'Пульт дистанционного управления',
                        5 => 'Выносной топливный бак 25 л.',
                        6 => 'Запасная(-ые) свеча(-и) зажигания',
                        7 => 'Рулевой рычаг',
                        8 => 'Набор инструментов',
                    ),
            ),
        '30EL' =>
            array (
                'category' => '2-STROKE',
                'name' => '30 EL',
                'param' =>
                    array (
                        0 => 'Аккумуляторные провода',
                        1 => 'Топливный шланг',
                        2 => 'Инструкция по эксплуатации на русском языке',
                        3 => 'Гребной винт 11"P',
                        4 => 'Пульт дистанционного управления',
                        5 => 'Выносной топливный бак 25 л.',
                        6 => 'Запасная(-ые) свеча(-и) зажигания',
                        7 => 'Рулевой рычаг',
                        8 => 'Набор инструментов',
                    ),
            ),
        '40M' =>
            array (
                'category' => '2-STROKE',
                'name' => '40 M',
                'param' =>
                    array (
                        0 => 'Топливный шланг',
                        1 => 'Шнур аварийной остановки мотора',
                        2 => 'Инструкция по эксплуатации на русском языке',
                        3 => 'Крепёж',
                        4 => 'Выносной топливный бак. Топливный бак емкостью 25 л. в отдельной упаковке',
                        5 => 'Запасная(-ые) свеча(-и) зажигания',
                        6 => 'Набор инструментов',
                    ),
            ),
        '40ML' =>
            array (
                'category' => '2-STROKE',
                'name' => '40 ML',
                'param' =>
                    array (
                        0 => 'Топливный шланг',
                        1 => 'Шнур аварийной остановки мотора',
                        2 => 'Инструкция по эксплуатации на русском языке',
                        3 => 'Крепёж',
                        4 => 'Выносной топливный бак. Топливный бак емкостью 25 л. в отдельной упаковке',
                        5 => 'Запасная(-ые) свеча(-и) зажигания',
                        6 => 'Набор инструментов',
                    ),
            ),
        '40EO' =>
            array (
                'category' => '2-STROKE',
                'name' => '40 EO',
                'param' =>
                    array (
                        0 => 'Аккумуляторные провода',
                        1 => 'Топливный шланг',
                        2 => 'Инструкция по эксплуатации на русском языке',
                        3 => 'Крепёж',
                        4 => 'Пульт дистанционного управления в отдельной упаковке',
                        5 => 'Выносной топливный бак. Топливный бак емкостью 25 л. в отдельной упаковке',
                        6 => 'Рулевой рычаг',
                    ),
            ),
        '40ELO' =>
            array (
                'category' => '2-STROKE',
                'name' => '40 ELO',
                'param' =>
                    array (
                        0 => 'Аккумуляторные провода',
                        1 => 'Топливный шланг',
                        2 => 'Инструкция по эксплуатации на русском языке',
                        3 => 'Крепёж',
                        4 => 'Пульт дистанционного управления в отдельной упаковке',
                        5 => 'Выносной топливный бак. Топливный бак емкостью 25 л. в отдельной упаковке',
                        6 => 'Рулевой рычаг',
                    ),
            ),
        '40ELPTO' =>
            array (
                'category' => '2-STROKE',
                'name' => '40 ELPTO',
                'param' =>
                    array (
                        0 => 'Аккумуляторные провода',
                        1 => 'Топливный шланг',
                        2 => 'Инструкция по эксплуатации на русском языке',
                        3 => 'Крепёж',
                        4 => 'Пульт дистанционного управления в отдельной упаковке',
                        5 => 'Выносной топливный бак. Топливный бак емкостью 25 л. в отдельной упаковке',
                        6 => 'Рулевой рычаг',
                    ),
            ),
        '50EO' =>
            array (
                'category' => '2-STROKE',
                'name' => '50 EO',
                'param' =>
                    array (
                        0 => 'Аккумуляторные провода',
                        1 => 'Топливный шланг',
                        2 => 'Инструкция по эксплуатации на русском языке',
                        3 => 'Крепёж',
                        4 => 'Пульт дистанционного управления в отдельной упаковке',
                        5 => 'Выносной топливный бак. Топливный бак емкостью 25 л. в отдельной упаковке',
                        6 => 'Рулевой рычаг',
                    ),
            ),
        '50ELPTO' =>
            array (
                'category' => '2-STROKE',
                'name' => '50 ELPTO',
                'param' =>
                    array (
                        0 => 'Аккумуляторные провода',
                        1 => 'Топливный шланг',
                        2 => 'Инструкция по эксплуатации на русском языке',
                        3 => 'Крепёж',
                        4 => 'Пульт дистанционного управления в отдельной упаковке',
                        5 => 'Выносной топливный бак. Топливный бак емкостью 25 л. в отдельной упаковке',
                        6 => 'Рулевой рычаг',
                    ),
            ),
        '60EO' =>
            array (
                'category' => '2-STROKE',
                'name' => '60 EO',
                'param' =>
                    array (
                        0 => 'Аккумуляторные провода',
                        1 => 'Топливный шланг',
                        2 => 'Инструкция по эксплуатации на русском языке',
                        3 => 'Крепёж',
                        4 => 'Пульт дистанционного управления в отдельной упаковке',
                        5 => 'Выносной топливный бак. Топливный бак емкостью 25 л. в отдельной упаковке',
                        6 => 'Рулевой рычаг',
                    ),
            ),
        '60ELPTO' =>
            array (
                'category' => '2-STROKE',
                'name' => '60 ELPTO',
                'param' =>
                    array (
                        0 => 'Аккумуляторные провода',
                        1 => 'Топливный шланг',
                        2 => 'Инструкция по эксплуатации на русском языке',
                        3 => 'Крепёж',
                        4 => 'Пульт дистанционного управления в отдельной упаковке',
                        5 => 'Выносной топливный бак. Топливный бак емкостью 25 л. в отдельной упаковке',
                        6 => 'Рулевой рычаг',
                    ),
            ),
        '60ELPTOBIGFOOT' =>
            array (
                'category' => '2-STROKE',
                'name' => '60 ELPTO BigFoot',
                'param' =>
                    array (
                        0 => 'Аккумуляторные провода',
                        1 => 'Топливный шланг',
                        2 => 'Инструкция по эксплуатации на русском языке',
                        3 => 'Крепёж',
                        4 => 'Пульт дистанционного управления в отдельной упаковке',
                        5 => 'Выносной топливный бак. Топливный бак емкостью 25 л. в отдельной упаковке',
                        6 => 'Рулевой рычаг',
                    ),
            ),
        '75ELPTO' =>
            array (
                'category' => '2-STROKE',
                'name' => '75 ELPTO',
                'param' =>
                    array (
                        0 => 'Аккумуляторные провода',
                        1 => 'Топливный шланг',
                        2 => 'Инструкция по эксплуатации на русском языке',
                        3 => 'Крепёж',
                        4 => 'Пульт дистанционного управления в отдельной упаковке',
                        5 => 'Выносной топливный бак. Топливный бак емкостью 25 л. в отдельной упаковке',
                        6 => 'Рулевой рычаг',
                    ),
            ),
        '90ELPTO' =>
            array (
                'category' => '2-STROKE',
                'name' => '90 ELPTO',
                'param' =>
                    array (
                        0 => 'Аккумуляторные провода',
                        1 => 'Топливный шланг',
                        2 => 'Инструкция по эксплуатации на русском языке',
                        3 => 'Крепёж',
                        4 => 'Пульт дистанционного управления в отдельной упаковке',
                        5 => 'Выносной топливный бак. Топливный бак емкостью 25 л. в отдельной упаковке',
                        6 => 'Рулевой рычаг',
                    ),
            ),
        '200EFI' =>
            array (
                'category' => '2-STROKE',
                'name' => '200 EFI',
                'param' =>
                    array (
                        0 => 'Аккумуляторные провода',
                        1 => 'Переходник для промывки двигателя',
                        2 => 'Инструкция по эксплуатации на русском языке',
                        3 => 'Крепёж',
                        4 => 'Монтажный комплект, верхний',
                        5 => 'Рулевой рычаг',
                        6 => 'Датчик угла наклона, аналоговый',
                    ),
            ),
        '225EFI' =>
            array (
                'category' => '2-STROKE',
                'name' => '225 EFI',
                'param' =>
                    array (
                        0 => 'Аккумуляторные провода',
                        1 => 'Переходник для промывки двигателя',
                        2 => 'Инструкция по эксплуатации на русском языке',
                        3 => 'Крепёж',
                        4 => 'Монтажный комплект, верхний',
                        5 => 'Рулевой рычаг',
                        6 => 'Датчик угла наклона, аналоговый',
                    ),
            ),
        '250EFI' =>
            array (
                'category' => '2-STROKE',
                'name' => '250 EFI',
                'param' =>
                    array (
                        0 => 'Аккумуляторные провода',
                        1 => 'Переходник для промывки двигателя',
                        2 => 'Инструкция по эксплуатации на русском языке',
                        3 => 'Крепёж',
                        4 => 'Монтажный комплект, верхний',
                        5 => 'Рулевой рычаг',
                        6 => 'Датчик угла наклона, аналоговый',
                    ),
            ),
        '15MSEAPRO262CC' =>
            array (
                'category' => '2-STROKE SEAPRO',
                'name' => '15 M SeaPro (262cc)',
                'param' =>
                    array (
                        0 => 'Топливный шланг',
                        1 => 'Шнур аварийной остановки мотора',
                        2 => 'Инструкция по эксплуатации на русском языке',
                        3 => 'Гребной винт 9"P',
                        4 => 'Выносной топливный бак 25 л.',
                        5 => 'Запасные прокладки',
                        6 => 'Запасная крыльчатка',
                        7 => 'Запасная(-ые) свеча(-и) зажигания',
                        8 => 'Набор инструментов',
                    ),
            ),
        '15MSEAPRO294CC' =>
            array (
                'category' => '2-STROKE SEAPRO',
                'name' => '15 M SeaPro (294cc)',
                'param' =>
                    array (
                        0 => 'Топливный шланг',
                        1 => 'Шнур аварийной остановки мотора',
                        2 => 'Инструкция по эксплуатации на русском языке',
                        3 => 'Крепёж',
                        4 => 'Гребной винт',
                        5 => 'Выносной топливный бак 25 л.',
                        6 => 'Запасная(-ые) свеча(-и) зажигания',
                        7 => 'Набор инструментов',
                    ),
            ),
        '15MLSEAPRO294CC' =>
            array (
                'category' => '2-STROKE SEAPRO',
                'name' => '15 ML SeaPro (294cc)',
                'param' =>
                    array (
                        0 => 'Топливный шланг',
                        1 => 'Шнур аварийной остановки мотора',
                        2 => 'Инструкция по эксплуатации на русском языке',
                        3 => 'Крепёж',
                        4 => 'Гребной винт',
                        5 => 'Выносной топливный бак 25 л.',
                        6 => 'Запасная(-ые) свеча(-и) зажигания',
                        7 => 'Набор инструментов',
                    ),
            ),
        '25MSEAPRO' =>
            array (
                'category' => '2-STROKE SEAPRO',
                'name' => '25 M SeaPro',
                'param' =>
                    array (
                        0 => 'Топливный шланг',
                        1 => 'Шнур аварийной остановки мотора',
                        2 => 'Инструкция по эксплуатации на русском языке',
                        3 => 'Гребной винт 13"P',
                        4 => 'Выносной топливный бак 25 л.',
                        5 => 'Запасная(-ые) свеча(-и) зажигания',
                        6 => 'Набор инструментов',
                    ),
            ),
        '25MLSEAPRO' =>
            array (
                'category' => '2-STROKE SEAPRO',
                'name' => '25 ML SeaPro',
                'param' =>
                    array (
                        0 => 'Топливный шланг',
                        1 => 'Шнур аварийной остановки мотора',
                        2 => 'Инструкция по эксплуатации на русском языке',
                        3 => 'Гребной винт 11"P',
                        4 => 'Выносной топливный бак 25 л.',
                        5 => 'Запасная(-ые) свеча(-и) зажигания',
                        6 => 'Набор инструментов',
                    ),
            ),
        '40MSEAPRO' =>
            array (
                'category' => '2-STROKE SEAPRO',
                'name' => '40 M SeaPro',
                'param' =>
                    array (
                        0 => 'Топливный шланг',
                        1 => 'Шнур аварийной остановки мотора',
                        2 => 'Инструкция по эксплуатации на русском языке',
                        3 => 'Крепёж',
                        4 => 'Гребной винт в отдельной упаковке',
                        5 => 'Выносной топливный бак. Топливный бак емкостью 25 л. в отдельной упаковке',
                        6 => 'Запасные прокладки',
                        7 => 'Запасная крыльчатка',
                        8 => 'Запасная(-ые) свеча(-и) зажигания',
                        9 => 'Набор инструментов',
                    ),
            ),
        '40MLSEAPRO' =>
            array (
                'category' => '2-STROKE SEAPRO',
                'name' => '40 ML SeaPro',
                'param' =>
                    array (
                        0 => 'Топливный шланг',
                        1 => 'Шнур аварийной остановки мотора',
                        2 => 'Инструкция по эксплуатации на русском языке',
                        3 => 'Крепёж',
                        4 => 'Гребной винт в отдельной упаковке',
                        5 => 'Выносной топливный бак. Топливный бак емкостью 25 л. в отдельной упаковке',
                        6 => 'Запасные прокладки',
                        7 => 'Запасная крыльчатка',
                        8 => 'Запасная(-ые) свеча(-и) зажигания',
                        9 => 'Набор инструментов',
                    ),
            ),
        '55MSEAPRO' =>
            array (
                'category' => '2-STROKE SEAPRO',
                'name' => '55 M SeaPro',
                'param' =>
                    array (
                        0 => 'Топливный шланг',
                        1 => 'Шнур аварийной остановки мотора',
                        2 => 'Инструкция по эксплуатации на русском языке',
                        3 => 'Крепёж',
                        4 => 'Гребной винт в отдельной упаковке',
                        5 => 'Выносной топливный бак. Топливный бак емкостью 25 л. в отдельной упаковке',
                        6 => 'Запасные прокладки',
                        7 => 'Запасные хомуты',
                        8 => 'Запасная крыльчатка',
                        9 => 'Запасная(-ые) свеча(-и) зажигания',
                        10 => 'Набор инструментов',
                    ),
            ),
        '55MLSEAPRO' =>
            array (
                'category' => '2-STROKE SEAPRO',
                'name' => '55 ML SeaPro',
                'param' =>
                    array (
                        0 => 'Топливный шланг',
                        1 => 'Шнур аварийной остановки мотора',
                        2 => 'Инструкция по эксплуатации на русском языке',
                        3 => 'Крепёж',
                        4 => 'Гребной винт в отдельной упаковке',
                        5 => 'Выносной топливный бак. Топливный бак емкостью 25 л. в отдельной упаковке',
                        6 => 'Запасные прокладки',
                        7 => 'Запасные хомуты',
                        8 => 'Запасная крыльчатка',
                        9 => 'Запасная(-ые) свеча(-и) зажигания',
                        10 => 'Набор инструментов',
                    ),
            ),
        '60MLSEAPROBIGFOOT' =>
            array (
                'category' => '2-STROKE SEAPRO',
                'name' => '60 ML SeaPro BigFoot',
                'param' =>
                    array (
                        0 => 'Топливный шланг',
                        1 => 'Шнур аварийной остановки мотора',
                        2 => 'Инструкция по эксплуатации на русском языке',
                        3 => 'Крепёж',
                        4 => 'Гребной винт в отдельной упаковке',
                        5 => 'Выносной топливный бак. Топливный бак емкостью 25 л. в отдельной упаковке',
                        6 => 'Запасные прокладки',
                        7 => 'Запасные хомуты',
                        8 => 'Запасная крыльчатка',
                        9 => 'Запасная(-ые) свеча(-и) зажигания',
                        10 => 'Набор инструментов',
                    ),
            ),
        '75MLSEAPRO' =>
            array (
                'category' => '2-STROKE SEAPRO',
                'name' => '75 ML SeaPro',
                'param' =>
                    array (
                        0 => 'Топливный шланг',
                        1 => 'Шнур аварийной остановки мотора',
                        2 => 'Инструкция по эксплуатации на русском языке',
                        3 => 'Крепёж',
                        4 => 'Гребной винт в отдельной упаковке',
                        5 => 'Выносной топливный бак. Топливный бак емкостью 25 л. в отдельной упаковке',
                        6 => 'Запасные прокладки',
                        7 => 'Запасные хомуты',
                        8 => 'Запасная крыльчатка',
                        9 => 'Запасная(-ые) свеча(-и) зажигания',
                        10 => 'Набор инструментов',
                    ),
            ),
        '75ELHSEAPRO' =>
            array (
                'category' => '2-STROKE SEAPRO',
                'name' => '75 ELH SeaPro',
                'param' =>
                    array (
                        0 => 'Аккумуляторные провода',
                        1 => 'Топливный шланг',
                        2 => 'Шнур аварийной остановки мотора',
                        3 => 'Инструкция по эксплуатации на русском языке',
                        4 => 'Крепёж',
                        5 => 'Гребной винт в отдельной упаковке',
                        6 => 'Выносной топливный бак. Топливный бак емкостью 25 л. в отдельной упаковке',
                        7 => 'Запасные прокладки',
                        8 => 'Запасные хомуты',
                        9 => 'Запасная крыльчатка',
                        10 => 'Запасная(-ые) свеча(-и) зажигания',
                        11 => 'Набор инструментов',
                    ),
            ),
        'JET25ML' =>
            array (
                'category' => 'Outboard Jet',
                'name' => 'Jet 25 ML',
                'param' =>
                    array (
                        0 => 'Топливный шланг',
                        1 => 'Пистолет для консистентной смазки',
                        2 => 'Шнур аварийной остановки мотора',
                        3 => 'Инструкция по эксплуатации на русском языке',
                        4 => 'Выносной топливный бак 25 л.',
                        5 => 'Запасная шпонка крыльчатки',
                        6 => 'Запасная(-ые) свеча(-и) зажигания',
                        7 => 'Запасная упорная шайба',
                        8 => 'Набор инструментов',
                    ),
            ),
        'JETF25MLHGAEFI' =>
            array (
                'category' => 'Outboard Jet',
                'name' => 'Jet F25 MLH GA EFI ',
                'param' =>
                    array (
                        0 => 'Топливный шланг',
                        1 => 'Пистолет для консистентной смазки',
                        2 => 'Шнур аварийной остановки мотора',
                        3 => 'Инструкция по эксплуатации на русском языке',
                        4 => 'Крепёж',
                        5 => 'Канистра с маслом 2x 1 л',
                        6 => 'Выносной топливный бак 25 л.',
                        7 => 'Запасная шпонка крыльчатки',
                        8 => 'Запасная(-ые) свеча(-и) зажигания',
                        9 => 'Запасная упорная шайба',
                        10 => 'Набор инструментов',
                    ),
            ),
        'JETF25ELHGAEFI' =>
            array (
                'category' => 'Outboard Jet',
                'name' => 'Jet F25 ELH GA EFI',
                'param' =>
                    array (
                        0 => 'Аккумуляторные провода',
                        1 => 'Топливный шланг',
                        2 => 'Пистолет для консистентной смазки',
                        3 => 'Шнур аварийной остановки мотора',
                        4 => 'Инструкция по эксплуатации на русском языке',
                        5 => 'Крепёж',
                        6 => 'Канистра с маслом 2x 1 л',
                        7 => 'Выносной топливный бак 25 л.',
                        8 => 'Запасная шпонка крыльчатки',
                        9 => 'Запасная(-ые) свеча(-и) зажигания',
                        10 => 'Запасная упорная шайба',
                        11 => 'Набор инструментов',
                    ),
            ),
        'JETF25ELPTEFI' =>
            array (
                'category' => 'Outboard Jet',
                'name' => 'Jet F25 ELPT EFI',
                'param' =>
                    array (
                        0 => 'Аккумуляторные провода',
                        1 => 'Топливный шланг',
                        2 => 'Пистолет для консистентной смазки',
                        3 => 'Инструкция по эксплуатации на русском языке',
                        4 => 'Крепёж',z
                        5 => 'Канистра с маслом 2x 1 л',
                        6 => 'Пульт дистанционного управления в отдельной упаковке',
                        7 => 'Выносной топливный бак 25 л.',
                        8 => 'Запасная шпонка крыльчатки',
                        9 => 'Запасная(-ые) свеча(-и) зажигания',
                        10 => 'Запасная упорная шайба',
                        11 => 'Рулевой рычаг',
                        12 => 'Набор инструментов',
                    ),
            ),
        'JETF40ELPTEFI' =>
            array (
                'category' => 'Outboard Jet',
                'name' => 'Jet F40 ELPT EFI',
                'param' =>
                    array (
                        0 => 'Аккумуляторные провода',
                        1 => 'Переходник для промывки двигателя',
                        2 => 'Топливный шланг',
                        3 => 'Инструкция по эксплуатации на русском языке',
                        4 => 'Крепёж',
                        5 => 'Пульт дистанционного управления в отдельной упаковке',
                        6 => 'Выносной топливный бак. Топливный бак емкостью 25 л. в отдельной упаковке',
                        7 => 'Рулевой рычаг',
                        8 => 'Набор инструментов',
                    ),
            ),
        'JET65ELPTO' =>
            array (
                'category' => 'Outboard Jet',
                'name' => 'Jet 65 ELPTO',
                'param' =>
                    array (
                        0 => 'Аккумуляторные провода',
                        1 => 'Переходник для промывки двигателя',
                        2 => 'Топливный шланг',
                        3 => 'Инструкция по эксплуатации на русском языке',
                        4 => 'Крепёж',
                        5 => 'Пульт дистанционного управления в отдельной упаковке',
                        6 => 'Выносной топливный бак. Топливный бак емкостью 25 л. в отдельной упаковке',
                        7 => 'Рулевой рычаг',
                        8 => 'Набор инструментов',
                    ),
            ),
    );

    $brelok = '<li><a href="/gifts/plavayushchij-brelok-dlya-klyuchej-detail">Плавающий брелок для ключей</a></li>';

    $search = strtoupper(str_replace(array('Лодочный мотор Mercury ',' ','(',')'),'',$product->product_name));
    if(is_array(@$outboard_data[$search])){
        if(!empty($outboard_data[$search]['param'])){
            $text .= '<ul>';
            $text .= $brelok;
            foreach($outboard_data[$search]['param'] as $param){
                $text .= '<li>'.$param.'</li>';
            }
            $text .= '</ul>';
        }
    }else{
        $text .= '<ul>';
        $text .=  $brelok;
        $text .= '<li>Гребной винт</li>';
        $text .= '<li>Инструкция по эксплуатации на русском языке</li>';
        $text .= '<li>ЗиП (запасные инструменты и принадлежности)</li>';
        $text .= '</ul>';
    }
    $text .= '</div>';
    $currentDesc = \DB::table('products')->where('product_id', $product->virtuemart_product_id)->first();
    if(!$currentDesc) { continue; }
    \DB::table('products')->where('product_id', $product->virtuemart_product_id)
    ->update(['description' => $currentDesc->description.$text]);
}

